{
    "editor.mouseWheelZoom": true,
    "security.workspace.trust.enabled": false,
    "workbench.startupEditor": "none",
    "explorer.confirmDragAndDrop": false,
    "editor.fontSize": 21,
    "debug.console.fontSize": 21,
    "markdown.preview.fontSize": 21,
    "terminal.integrated.fontSize": 21,
    "markdown-pdf.convertOnSave": true,
    "markdown-pdf.styles": [
        "~/.config/VSCodium/User/styles/markdown-pdf.css",
    ],
    "markdown-pdf.highlightSyles": "~/.config/VSCodium/User/styles/vs.css",
    "markdown-pdf.highlightStyle": "atom-one-light.css",
    "markdown-pdf.headerTemplate": "<div style=\"font-size: 7px; margin-left: 1cm; color: silver \"> by lucky777</div> <div style=\"font-size: 7px; margin-left: auto; margin-right: 1cm; color: silver \"> <span class='date'></span></div>"
}